summarize results 2020 08 03
…
ggsave("../figures/fig1.png", combined_image)

## Saving 6 x 8 in image

Notes: the reason that, for up-outliers, the upper quartile of differences has a median lower than the lower quartile of differences because of the many genes with low expression have a max mean accuracy of 88% (or whatever the exact numbers are)

bulk_results

## # A tibble: 49,417 x 20
##    Sample MEND_depth Gene  effective_length Type  Expression Threshold
##    <chr>       <dbl> <chr>            <dbl> <fct>      <dbl>     <dbl>
##  1 TH03_  11540237. RP11           292.   Up         0.356    0.344 
##  2 TH03_  11540237. RP11           130.   Up         0.390    0     
##  3 TH03_  11540237. TAS2           297.   Up         0.345    0.0718
##  4 TH03_  10752267. MIR1             1.55 Up         0.807    0     
##  5 TH02_  11672400. AC10           143.   Up         0.566    0     
##  6 TH03_  11540237. RP11           271.   Up         0.848    0.720 
##  7 TH03_  11540237. FAM1           242.   Up         0.227    0     
##  8 TH02_  11672400. RP11           152.   Up         0.791    0     
##  9 TH03_  10497367. BOLA           104.   Up         0.918    0     
## 10 TH02_  11672400. RP11           166.   Up         0.299    0     
## #  with 49,407 more rows, and 13 more variables: `Percent
## #   difference` <dbl>, Mean_Accuracy <dbl>, `Minimum Accuracy` <dbl>,
## #   `Maximum Accuracy` <dbl>, `Sample 1 Accuracy` <dbl>, `Sample 2
## #   Accuracy` <dbl>, `Sample 3 Accuracy` <dbl>, `Sample 4 Accuracy` <dbl>,
## #   `Sample 5 Accuracy` <dbl>, Expression_bin <fct>, MEND_bin <fct>,
## #   length_bin <fct>, Type_label <fct>
…
##      75% 
## 82.53239

        round(quantile(bulk_results$`Percent difference`, 0.75), 1)

##  75% 
## 82.5

        bulk_results %>%
  filter(`Percent difference` > quantile(`Percent difference`, 0.75),
         Type == "Up") %>%
  mutate(set = paste0("Difference>", round(quantile(`Percent difference`, 0.75), 1), "%"))

## # A tibble: 11,329 x 21
##    Sample MEND_depth Gene  effective_length Type  Expression Threshold
##    <chr>       <dbl> <chr>            <dbl> <fct>      <dbl>     <dbl>
##  1 TH03_  11540237. RP11           130.   Up         0.390         0
##  2 TH03_  10752267. MIR1             1.55 Up         0.807         0
##  3 TH02_  11672400. AC10           143.   Up         0.566         0
##  4 TH03_  11540237. FAM1           242.   Up         0.227         0
##  5 TH02_  11672400. RP11           152.   Up         0.791         0
##  6 TH03_  10497367. BOLA           104.   Up         0.918         0
##  7 TH02_  11672400. RP11           166.   Up         0.299         0
##  8 TH03_  11540237. CTD-           111.   Up         0.454         0
##  9 TH03_  11540237. RP11           287.   Up         0.356         0
## 10 TH02_  11672400. PGM5           268.   Up         0.526         0
## #  with 11,319 more rows, and 14 more variables: `Percent
## #   difference` <dbl>, Mean_Accuracy <dbl>, `Minimum Accuracy` <dbl>,
## #   `Maximum Accuracy` <dbl>, `Sample 1 Accuracy` <dbl>, `Sample 2
## #   Accuracy` <dbl>, `Sample 3 Accuracy` <dbl>, `Sample 4 Accuracy` <dbl>,
## #   `Sample 5 Accuracy` <dbl>, Expression_bin <fct>, MEND_bin <fct>,
## #   length_bin <fct>, Type_label <fct>, set <chr>
…
